{
    "page" : 1,
    "total" : 10,
    "total_pages":10,
    "seccion" : "Accesorios",
    "subseccion" : "Joyas", 
    "data":[

        {
            "id" : 1,
            "imagen": "/assets/img/5.accesorios/Joyas/joya1.jpg",
            "nombre_producto" : "Anillo Gosvinta",
            
            "tallas": ["Ajustable"],
            "material": "Latón", 
            "color" : ["Dorado"],
            "precio" : 350.00
        },
        {
            "id" : 2,
            "imagen": "/assets/img/5.accesorios/Joyas/joya2.jpg",
            "nombre_producto" : "Anillo Tastámara",
            "tallas": ["CH", "M"],
            "material": "Latón y Piedra natural", 
            "color" : ["Dorado"],
            "precio" : 400.00
        },
        {
            "id" : 3,
            "imagen": "/assets/img/5.accesorios/Joyas/joya3.jpg",
            "nombre_producto" : "Anillo Jigmai",
            "tallas": ["CH", "M"],
            "material": "Acero Inoxidable", 
            "color" : ["Dorado", "Plateado"],
            "precio" : 200.00
        },
        {
            "id" : 4,
            "imagen": "/assets/img/5.accesorios/Joyas/joya4.jpg",
            "nombre_producto" : "Anillo Tastámara 2",
            "tallas": ["CH", "M", "G", "XG"],
            "material": "Lana, Lino", 
            "color" : ["Azul", "Rojo", "Negro"],
            "precio" : 400.00
        },
        {
            "id" : 5,
            "imagen": "/assets/img/5.accesorios/Joyas/joya5.jpg",
            "nombre_producto" : "Anillo Ysabel",
            "tallas": ["Ajustable"],
            "material": "Latón con perla", 
            "color" : ["Dorado"],
            "precio" : 350.00
        },
        {
            "id" : 6,
            "imagen": "/assets/img/5.accesorios/Joyas/joya6.jpg",
            "nombre_producto" : "Collar Boltraffio",
            "tallas": ["Ajustable"],
            "material": "Piedra natural y latón ", 
            "color" : ["Negro"],
            "precio" : 300.0000
        },
        {
            "id" : 7,
            "imagen": "/assets/img/4.prendas/calzon_7.png",
            "nombre_producto" : "Calzón Venenciano Finales Siglo XVI",
            "tallas": ["CH", "M", "G", "XG"],
            "material": "Lino", 
            "color" : ["Rojo","Negro", "Azul"],
            "precio" : 3000
        },
        {
            "id" : 8,
            "imagen": "/assets/img/4.prendas/calzon_8.png",
            "nombre_producto" : "Calzón Romano",
            "tallas": ["CH", "M", "G", "XG"],
            "material": "Lana", 
            "color" : ["Cafe", "Rojo", "Azul"],
            "precio" : 1000
        }
                   
    ]
}