{
    "page" : 7,
    "total" : 10,
    "total_pages":10,
    "seccion" : "Accesorios",
    "subseccion" : "Sombreros", 
    "data":[

        {
            "id" : 1,
            "imagen": "/assets/img/5.accesorios/Sombreros/sombrero1.jpg",
            "nombre_producto" : "Sombrero de palma",
            "tallas": ["CH", "M", "G", "XG","XXG"],
            "material": "Palma", 
            "color" : ["Crema"],
            "precio" : 350.00
        },
        {
            "id" : 2,
            "imagen": "/assets/img/5.accesorios/Sombreros/sombrero2.jpg",
            "nombre_producto" : "Sombrero plano de paja",
            "tallas": ["CH", "M", "G", "XG","XXG"],
            "material": "Paja", 
            "color" : ["Café"],
            "precio" : 400.00
        },
        {
            "id" : 3,
            "imagen": "/assets/img/5.accesorios/Sombreros/sombrero3.jpg",
            "nombre_producto" : "Sombrero de tule",
            "tallas": ["CH", "M", "G", "XG","XXG"],
            "material": "Tule", 
            "color" : ["Verde"],
            "precio" : 200.00
        },
        {
            "id" : 4,
            "imagen": "/assets/img/5.accesorios/Sombreros/sombrero4.jpg",
            "nombre_producto" : "Sombrero redondo de paja",
            "tallas": ["CH", "M", "G", "XG","XXG"],
            "material": "Paja", 
            "color" : ["Café"],
            "precio" : 400.00
        },
        {
            "id" : 5,
            "imagen": "/assets/img/5.accesorios/Sombreros/sombrero5.jpg",
            "nombre_producto" : "Sombrero amplio",
            "tallas": ["CH", "M", "G", "XG","XXG"],
            "material": "Paja", 
            "color" : ["Café"],
            "precio" : 350.00
        },
        {
            "id" : 6,
            "imagen": "/assets/img/5.accesorios/Sombreros/sombrero6.jpg",
            "nombre_producto" : "Collar Boltraffio",
            "tallas": ["CH", "M", "G", "XG","XXG"],
            "material": "Piedra natural y latón ", 
            "color" : ["Negro"],
            "precio" : 300.0000
        },
        {
            "id" : 7,
            "imagen": "/assets/img/5.accesorios/Sombreros/sombrero7.jpg",
            "nombre_producto" : "Calzón Venenciano Finales Siglo XVI",
            "tallas": ["CH", "M", "G", "XG","XXG"],
            "material": "Lino", 
            "color" : ["Rojo","Negro", "Azul"],
            "precio" : 3000
        },
        {
            "id" : 8,
            "imagen": "/assets/img/5.accesorios/Sombreros/sombrero8.jpg",
            "nombre_producto" : "Calzón Romano",
            "tallas": ["CH", "M", "G", "XG","XXG"],
            "material": "Lana", 
            "color" : ["Cafe", "Rojo", "Azul"],
            "precio" : 1000
        }
                   
    ]
}