{
    "page" : 1,
    "total" : 8,
    "total_pages":2,
    "seccion" : "calzado",
    "subseccion" : "calzado", 
    "data":[

        {
            "id" : 1,
            "imagen": "/assets/img/6.Calzado/zapato8.jpg",
            "nombre_producto" : "Zapato de lansquenete",
            "descripcion" : "Siglo XVI",
            "tallas": ["2", "3", "4", "5", "6", "7", "8", "9"],
            "material": "Piel", 
            "color" : ["Negro", "Café"],
            "precio" : 700
        },
        {
            "id" : 2,
            "imagen": "/assets/img/6.Calzado/zapato7.jpg",
            "nombre_producto" : "Zapato de noble",
            "descripcion" : "Siglo XIII",
            "tallas": ["2", "3", "4", "5", "6", "7", "8", "9"],
            "material": "Piel", 
            "color" : ["Rojo"],
            "precio" : 800
        },
        {
            "id" : 3,
            "imagen": "/assets/img/6.Calzado/zapato9.jpg",
            "nombre_producto" : "Zapato bajo con aberturas",
            "descripcion" : "Siglos XIII-XIV",
            "tallas": ["2", "3", "4", "5", "6", "7", "8", "9"],
            "material": "Piel", 
            "color" : ["Café"],
            "precio" : 950
        },
        {
            "id" : 4,
            "imagen": "/assets/img/6.Calzado/zapato11.jpg",
            "nombre_producto" : "Zapato medio-alto",
            "descripcion" : "Siglo XIII-XIV",
            "tallas": ["2", "3", "4", "5", "6", "7", "8", "9"],
            "material": "Piel", 
            "color" : ["Café"],
            "precio" : 1900
        },
        {
            "id" : 5,
            "imagen": "/assets/img/6.Calzado/zapato12.jpg",
            "nombre_producto" : "Mocasines con cordones",
            "descripcion" : "Siglo XIII-XIV",
            "tallas": ["2", "3", "4", "5", "6", "7", "8", "9"],
            "material": "Piel", 
            "color" : ["Carmesí"],
            "precio" : 1900
        },
        {
            "id" : 6,
            "imagen": "/assets/img/6.Calzado/zapato16.jpg",
            "nombre_producto" : "Zapato puntiagudo con patrón calado",
            "descripcion" : "Siglo XIV",
            "tallas": ["2", "3", "4", "5", "6", "7", "8", "9"],
            "material": "Piel", 
            "color" : ["Rojo-Azul"],
            "precio" : 2000
        },
        {
            "id" : 7,
            "imagen": "/assets/img/6.Calzado/zapato17.jpg",
            "nombre_producto" : "Correas de cuero con núcleo de corcho",
            "descripcion" : "Segunda mitad del siglo XV",
            "tallas": ["2", "3", "4", "5", "6", "7", "8", "9"],
            "material": "Piel", 
            "color" : ["Café"],
            "precio" : 1700
        },
        {
            "id" : 8,
            "imagen": "/assets/img/6.Calzado/zapato15.jpg",
            "nombre_producto" : "Zapato con abertura en el borde",
            "descripcion" : "Año 1495",
            "tallas": ["2", "3", "4", "5", "6", "7", "8", "9"],
            "material": "Piel", 
            "color" : ["Café"],
            "precio" : 700
        }
                   
    ]
}

{
    "page" : 2,
    "total" : 8,
    "total_pages":2,
    "seccion" : "calzado",
    "subseccion" : "calzado", 
    "data":[

        {
            "id" : 9,
            "imagen": "/assets/img/6.Calzado/zapato6.jpg",
            "nombre_producto" : "Zapatos nórdicos",
            "descripcion" : "Siglo IX",
            "tallas": ["2", "3", "4", "5", "6", "7", "8", "9"],
            "material": "Piel", 
            "color" : ["Café"],
            "precio" : 700
        },
        {
            "id" : 10,
            "imagen": "/assets/img/6.Calzado/zapato14.jpg",
            "nombre_producto" : "Zapato Bund con lazo y correa",
            "descripcion" : "Siglo XV-XVI",
            "tallas": ["2", "3", "4", "5", "6", "7", "8", "9"],
            "material": "Piel", 
            "color" : ["Rojo"],
            "precio" : 2200
        },
        {
            "id" : 11,
            "imagen": "/assets/img/6.Calzado/zapato1.jpg",
            "nombre_producto" : "Zapato para HMB",
            "descripcion" : "Zapato para Batalla Medieval Histórica",
            "tallas": ["2", "3", "4", "5", "6", "7", "8", "9"],
            "material": "Piel", 
            "color" : ["Negro"],
            "precio" : 700
        },
        {
            "id" : 12,
            "imagen": "/assets/img/6.Calzado/zapato2.jpg",
            "nombre_producto" : "Zapato de la baja edad media",
            "descripcion" : "Siglos XIV-XV",
            "tallas": ["2", "3", "4", "5", "6", "7", "8", "9"],
            "material": "Piel", 
            "color" : ["Café"],
            "precio" : 800
        },
        {
            "id" : 13,
            "imagen": "/assets/img/6.Calzado/zapato3.jpg",
            "nombre_producto" : "Zapato renacimiento temprano",
            "descripcion" : "Siglo XIV",
            "tallas": ["2", "3", "4", "5", "6", "7", "8", "9"],
            "material": "Piel", 
            "color" : ["Negro"],
            "precio" : 2900
        },
        {
            "id" : 14,
            "imagen": "/assets/img/6.Calzado/zapato4.jpg",
            "nombre_producto" : "Zapato bajo con cordones laterales",
            "descripcion" : "Siglo XIV",
            "tallas": ["2", "3", "4", "5", "6", "7", "8", "9"],
            "material": "Piel", 
            "color" : ["Cagé"],
            "precio" : 2400
        },
        {
            "id" : 15,
            "imagen": "/assets/img/6.Calzado/zapato13.jpg",
            "nombre_producto" : "Reimerswaal",
            "descripcion" : "Zapato de media altura con 2 correas sin trabilla. Siglo XV",
            "tallas": ["2", "3", "4", "5", "6", "7", "8", "9"],
            "material": "Piel", 
            "color" : ["Café"],
            "precio" : 2000
        },
        {
            "id" : 16,
            "imagen": "/assets/img/6.Calzado/zapato10.jpg",
            "nombre_producto" : "Botas con ganchos y ojos",
            "descripcion" : "Siglo XV",
            "tallas": ["2", "3", "4", "5", "6", "7", "8", "9"],
            "material": "Piel", 
            "color" : ["Negro"],
            "precio" : 1500
        }
                   
    ]
}

