{
    "page" : 10,
    "total" : 10,
    "total_pages":10,
    "seccion" : "Accesorios",
    "subseccion" : "Cofias", 
    "data":[

        {
            "id" : 1,
            "imagen": "/assets/img/5.accesorios/Cofias/cofia1.jpeg",
            "nombre" : " Modelo 1",
            "tallas": ["Ajustable"],
            "material": "Lino", 
            "color" : ["Amarillo","Verde"],
            "precio" : 3000.00
        },
        {
            "id" : 2,
            "imagen": "/assets/img/5.accesorios/Cofias/cofia2.jpeg",
            "nombre" : " Modelo 2",
            "tallas": ["Ajustable"],
            "material": "Tela", 
            "color" : ["Rojo"],
            "precio" : 450.00
        },
        {
            "id" : 3,
            "imagen": "/assets/img/5.accesorios/Cofias/cofia3.jpeg",
            "nombre" : " Modelo 3",
            "tallas": ["Ajustable"],
            "material": "Tela", 
            "color" : ["Blanco"],
            "precio" : 481.00
        },
        {
            "id" : 4,
            "imagen": "/assets/img/5.accesorios/Cofias/cofia4.jpeg",
            "nombre" : " Modelo 4",
            "tallas": ["Ajustable"],
            "material": "Lino", 
            "color" : ["Blanco"],
            "precio" : 515.00
        },
        {
            "id" : 5,
            "imagen": "/assets/img/5.accesorios/Bolsos/bolso5.jpg",
            "nombre" : " Modelo 5",
            "tallas": ["Ajustable"],
            "material": "Tela", 
            "color" : ["Negro"],
            "precio" : 485.00
        }
        
                   
    ]
}