{
    "page" : 2,
    "total" : 4,
    "total_pages":4,
    "seccion" : "Accesorios",
    "subseccion" : "Joyas", 
    "data":[

        {

            "nombre" : "Actualizar"
           
        }
                   
    ]
}
