{
    "page" : 2,
    "total" : 10,
    "total_pages":10,
    "seccion" : "Accesorios",
    "subseccion" : "Joyas", 
    "data":[

        {
            "id" : 1,
            "imagen": "/assets/img/5.accesorios/Bolsos/bolso1.jpg",
            "nombre" : "Bolso Mabel",
            "tallas": ["M"],
            "material": "Piel", 
            "color" : ["Azul","Verde","Gris","Café"],
            "precio" : 300.00
        },
        {
            "id" : 2,
            "imagen": "/assets/img/5.accesorios/Bolsos/bolso2.jpg",
            "nombre" : "Bolso dragón",
            "tallas": ["CH"],
            "material": "Piel", 
            "color" : ["Café"],
            "precio" : 400.00
        },
        {
            "id" : 3,
            "imagen": "/assets/img/5.accesorios/Bolsos/bolso3.jpg",
            "nombre" : "Bolso Mini",
            "tallas": ["CH"],
            "material": "Piel", 
            "color" : ["Café"],
            "precio" : 400.00
        },
        {
            "id" : 4,
            "imagen": "/assets/img/5.accesorios/Bolsos/bolso4.jpg",
            "nombre" : "Bolso sencillo",
            "tallas": ["M"],
            "material": "Piel", 
            "color" : ["Café"],
            "precio" : 500.00
        },
        {
            "id" : 5,
            "imagen": "/assets/img/5.accesorios/Bolsos/bolso5.jpg",
            "nombre" : "Bolso Eribur",
            "tallas": ["M"],
            "material": "Piel", 
            "color" : ["Negro"],
            "precio" : 500.00
        },
        {
            "id" : 6,
            "imagen": "/assets/img/5.accesorios/Bolsos/bolso6.jpeg",
            "nombre" : "Bolso colmillo",
            "tallas": ["CH"],
            "material": "Piel", 
            "color" : ["Negro"],
            "precio" : 450.00
        },
        {
            "id" : 7,
            "imagen": "/assets/img/5.accesorios/Bolsos/bolso7.jpeg",
            "nombre" : "Bolso de vista",
            "tallas": ["CH"],
            "material": "Piel", 
            "color" : ["Café"],
            "precio" : 300.0
        },
        {
            "id" : 8,
            "imagen": "/assets/img/5.accesorios/Bolsos/bolso8.jpeg",
            "nombre" : "Bolzo cruz",
            "tallas": ["CH"],
            "material": "Piel", 
            "color" : ["Negro"],
            "precio" : 450.00
        }
                   
    ]
}