{
    "page" : 4,
    "total" : 10,
    "total_pages":10,
    "seccion" : "Accesorios",
    "subseccion" : "Sporrans", 
    "data":[

        {
            "id" : 1,
            "imagen": "/assets/img/5.accesorios/Bonetes/bonete1.jpg",
            "nombre" : "Sporran maldiva",
            "tallas": ["CH", "M", "G", "XG","XXG"],
            "material": "Paño de lana", 
            "color" : ["Rojo"],
            "precio" : 800.00
        },
        {
            "id" : 2,
            "imagen": "/assets/img/5.accesorios/Bonetes/bonete2.jpg",
            "nombre" : "Sporran sencillo (dos piezas)",
            "tallas": ["CH", "M", "G", "XG","XXG"],
            "material": "Paño de lana", 
            "color" : ["Café"],
            "precio" : 800.00
        },
        {
            "id" : 3,
            "imagen": "/assets/img/5.accesorios/Bonetes/bonete3.jpg",
            "nombre" : "Sporran malamute",
            "tallas": ["CH", "M", "G", "XG","XXG"],
            "material": "Paño de lana", 
            "color" : ["Negro"],
            "precio" : 800.00
        },
        {
            "id" : 4,
            "imagen": "/assets/img/5.accesorios/Bonetes/bonete4.jpg",
            "nombre" : "Sporran grabado",
            "tallas": ["CH", "M", "G", "XG","XXG"],
            "material": "Paño de lana", 
            "color" : ["Rojo/Azul"],
            "precio" : 800.00
        },
        {
            "id" : 5,
            "imagen": "/assets/img/5.accesorios/Bonetes/bonete5.jpg",
            "nombre" : "Sporran básico",
            "tallas": ["CH", "M", "G", "XG","XXG"],
            "material": "Paño de lana", 
            "color" : ["Azul/Café"],
            "precio" : 800.00
        },
        {
            "id" : 6,
            "imagen": "/assets/img/5.accesorios/Bonetes/bonete6.jpg",
            "nombre" : "Sporran renacentista",
            "tallas": ["CH", "M", "G", "XG","XXG"],
            "material": "Terciopelo", 
            "color" : ["Café"],
            "precio" : 500.00
        },
        {
            "id" : 7,
            "imagen": "/assets/img/5.accesorios/Bonetes/bonete7.jpg",
            "nombre" : "Sporran cortesano",
            "tallas": ["CH", "M", "G", "XG","XXG"],
            "material": "Terciopelo", 
            "color" : ["Guindo"],
            "precio" : 500.00
        },
        {
            "id" : 8,
            "imagen": "/assets/img/5.accesorios/Bonetes/bonete8.jpg",
            "nombre" : "Sporran duo",
            "tallas": ["CH", "M", "G", "XG","XXG"],
            "material": "Paño de lana", 
            "color" : ["Azul/Rojo"],
            "precio" : 500.00
        }
                   
    ]
}